// Jest Snapshot v1, https://goo.gl/fbAQLP

exports[`components | SpareDays | List should render spare days 1`] = `
<div>
  <div
    class="MuiGrid-root-346 MuiGrid-container-347 MuiGrid-spacing-xs-2-370 MuiGrid-direction-xs-column-350 MuiGrid-align-items-xs-center-355"
    data-testid="spareday.list"
  >
    <div
      class="MuiGrid-root-346 MuiGrid-container-347 MuiGrid-item-348 MuiGrid-justify-xs-center-364"
    >
      <div
        class="MuiGrid-root-346 MuiGrid-item-348"
      >
        <div
          class="MuiFormControl-root-449 makeStyles-formControl-345"
        >
          <label
            class="MuiFormLabel-root-465 MuiInputLabel-root-453 MuiInputLabel-formControl-459 MuiInputLabel-animated-462 MuiInputLabel-shrink-461 MuiFormLabel-filled-470"
            data-shrink="true"
          >
            Year
          </label>
          <div
            class="MuiInputBase-root-595 MuiInput-root-581 MuiInput-underline-586 MuiInputBase-formControl-596 MuiInput-formControl-582"
          >
            <div
              aria-haspopup="listbox"
              class="MuiSelect-root-570 MuiSelect-select-571 MuiSelect-selectMenu-574 MuiInputBase-input-606 MuiInput-input-591"
              role="button"
              tabindex="0"
            >
              2017
            </div>
            <input
              aria-hidden="true"
              class="MuiSelect-nativeInput-580"
              tabindex="-1"
              value="2017"
            />
            <svg
              aria-hidden="true"
              class="MuiSvgIcon-root-530 MuiSelect-icon-576"
              focusable="false"
              viewBox="0 0 24 24"
            >
              <path
                d="M7 10l5 5 5-5z"
              />
            </svg>
          </div>
        </div>
      </div>
      <div
        class="MuiGrid-root-346 MuiGrid-item-348"
      >
        <div
          class="MuiFormControl-root-449 makeStyles-formControl-345"
        >
          <label
            class="MuiFormLabel-root-465 MuiInputLabel-root-453 MuiInputLabel-formControl-459 MuiInputLabel-animated-462 MuiInputLabel-shrink-461"
            data-shrink="true"
          >
            Country
          </label>
          <div
            class="MuiInputBase-root-595 MuiInput-root-581 MuiInput-underline-586 MuiInputBase-formControl-596 MuiInput-formControl-582"
          >
            <div
              aria-haspopup="listbox"
              class="MuiSelect-root-570 MuiSelect-select-571 MuiSelect-selectMenu-574 MuiInputBase-input-606 MuiInput-input-591"
              role="button"
              tabindex="0"
            >
              All Countries
            </div>
            <input
              aria-hidden="true"
              class="MuiSelect-nativeInput-580"
              tabindex="-1"
              value=""
            />
            <svg
              aria-hidden="true"
              class="MuiSvgIcon-root-530 MuiSelect-icon-576"
              focusable="false"
              viewBox="0 0 24 24"
            >
              <path
                d="M7 10l5 5 5-5z"
              />
            </svg>
          </div>
        </div>
      </div>
    </div>
    <div
      class="MuiGrid-root-346 makeStyles-root-342 MuiGrid-item-348"
    >
      <div
        class="MuiPaper-root-474 MuiTableContainer-root-473 MuiPaper-elevation1-478 MuiPaper-rounded-475"
      >
        <table
          aria-label="a dense table"
          class="MuiTable-root-502"
        >
          <thead
            class="MuiTableHead-root-504"
          >
            <tr
              class="MuiTableRow-root-505 MuiTableRow-head-508"
            >
              <th
                class="MuiTableCell-root-510 MuiTableCell-head-511 MuiTableCell-alignCenter-518 MuiTableCell-sizeSmall-514"
                scope="col"
              >
                <span
                  aria-disabled="false"
                  class="MuiButtonBase-root-527 MuiTableSortLabel-root-522 makeStyles-bold-344 MuiTableSortLabel-active-523"
                  role="button"
                  tabindex="0"
                >
                  Day
                  <svg
                    aria-hidden="true"
                    class="MuiSvgIcon-root-530 MuiTableSortLabel-icon-524 MuiTableSortLabel-iconDirectionAsc-526"
                    focusable="false"
                    viewBox="0 0 24 24"
                  >
                    <path
                      d="M20 12l-1.41-1.41L13 16.17V4h-2v12.17l-5.58-5.59L4 12l8 8 8-8z"
                    />
                  </svg>
                </span>
              </th>
              <th
                class="MuiTableCell-root-510 MuiTableCell-head-511 MuiTableCell-alignCenter-518 MuiTableCell-sizeSmall-514"
                scope="col"
              >
                <span
                  aria-disabled="false"
                  class="MuiButtonBase-root-527 MuiTableSortLabel-root-522 makeStyles-bold-344"
                  role="button"
                  tabindex="0"
                >
                  Label
                  <svg
                    aria-hidden="true"
                    class="MuiSvgIcon-root-530 MuiTableSortLabel-icon-524 MuiTableSortLabel-iconDirectionAsc-526"
                    focusable="false"
                    viewBox="0 0 24 24"
                  >
                    <path
                      d="M20 12l-1.41-1.41L13 16.17V4h-2v12.17l-5.58-5.59L4 12l8 8 8-8z"
                    />
                  </svg>
                </span>
              </th>
              <th
                class="MuiTableCell-root-510 MuiTableCell-head-511 MuiTableCell-alignCenter-518 MuiTableCell-sizeSmall-514"
                scope="col"
              >
                <span
                  aria-disabled="false"
                  class="MuiButtonBase-root-527 MuiTableSortLabel-root-522 makeStyles-bold-344"
                  role="button"
                  tabindex="0"
                >
                  Country
                  <svg
                    aria-hidden="true"
                    class="MuiSvgIcon-root-530 MuiTableSortLabel-icon-524 MuiTableSortLabel-iconDirectionAsc-526"
                    focusable="false"
                    viewBox="0 0 24 24"
                  >
                    <path
                      d="M20 12l-1.41-1.41L13 16.17V4h-2v12.17l-5.58-5.59L4 12l8 8 8-8z"
                    />
                  </svg>
                </span>
              </th>
              <th
                class="MuiTableCell-root-510 MuiTableCell-head-511 MuiTableCell-alignCenter-518 MuiTableCell-sizeSmall-514"
                scope="col"
              >
                <span
                  aria-disabled="false"
                  class="MuiButtonBase-root-527 MuiTableSortLabel-root-522 makeStyles-bold-344"
                  role="button"
                  tabindex="0"
                >
                  Team
                  <svg
                    aria-hidden="true"
                    class="MuiSvgIcon-root-530 MuiTableSortLabel-icon-524 MuiTableSortLabel-iconDirectionAsc-526"
                    focusable="false"
                    viewBox="0 0 24 24"
                  >
                    <path
                      d="M20 12l-1.41-1.41L13 16.17V4h-2v12.17l-5.58-5.59L4 12l8 8 8-8z"
                    />
                  </svg>
                </span>
              </th>
              <th
                class="MuiTableCell-root-510 MuiTableCell-head-511 MuiTableCell-sizeSmall-514"
                scope="col"
              />
            </tr>
          </thead>
          <tbody
            class="MuiTableBody-root-539"
          >
            <tr
              class="MuiTableRow-root-505 makeStyles-row-343 MuiTableRow-hover-507"
              data-testid="spareday#1"
            >
              <th
                class="MuiTableCell-root-510 MuiTableCell-body-512 MuiTableCell-sizeSmall-514"
                role="cell"
                scope="row"
              >
                Sunday, December 31, 2017
              </th>
              <td
                class="MuiTableCell-root-510 MuiTableCell-body-512 MuiTableCell-alignCenter-518 MuiTableCell-sizeSmall-514"
              >
                date1
              </td>
              <td
                class="MuiTableCell-root-510 MuiTableCell-body-512 MuiTableCell-alignCenter-518 MuiTableCell-sizeSmall-514"
              >
                <div
                  class="MuiGrid-root-346 MuiGrid-container-347 MuiGrid-spacing-xs-1-369 MuiGrid-align-items-xs-center-355"
                >
                  <div
                    class="MuiGrid-root-346 MuiGrid-item-348"
                  >
                    <img
                      src="https://cdnjs.cloudflare.com/ajax/libs/flag-icon-css/3.4.3/flags/4x3/fr.svg"
                      style="display: inline-block; width: 1.5em; height: 1.5em; vertical-align: middle;"
                    />
                  </div>
                  <div
                    class="MuiGrid-root-346 MuiGrid-item-348"
                  >
                    <p
                      class="MuiTypography-root-540 MuiTypography-body1-542"
                    >
                      France
                    </p>
                  </div>
                </div>
              </td>
              <td
                class="MuiTableCell-root-510 MuiTableCell-body-512 MuiTableCell-alignCenter-518 MuiTableCell-sizeSmall-514"
              >
                <div
                  class="MuiButtonBase-root-527 MuiChip-root-617 MuiChip-clickable-622"
                  role="button"
                  style="z-index: 3;"
                  tabindex="0"
                >
                  <span
                    class="MuiChip-label-639"
                  >
                    team1
                  </span>
                  <span
                    class="MuiTouchRipple-root-671"
                  />
                </div>
              </td>
              <td
                class="MuiTableCell-root-510 MuiTableCell-body-512 MuiTableCell-alignCenter-518 MuiTableCell-sizeSmall-514"
              >
                <div
                  class="MuiGrid-root-346 MuiGrid-container-347 MuiGrid-wrap-xs-nowrap-353 MuiGrid-align-items-xs-center-355"
                >
                  <div
                    class="MuiGrid-root-346 MuiGrid-item-348"
                  >
                    <button
                      class="MuiButtonBase-root-527 MuiIconButton-root-647 MuiIconButton-colorPrimary-651"
                      tabindex="0"
                      type="button"
                    >
                      <span
                        class="MuiIconButton-label-655"
                      >
                        <svg
                          aria-hidden="true"
                          class="MuiSvgIcon-root-530"
                          focusable="false"
                          viewBox="0 0 24 24"
                        >
                          <path
                            d="M3 17.25V21h3.75L17.81 9.94l-3.75-3.75L3 17.25zM20.71 7.04c.39-.39.39-1.02 0-1.41l-2.34-2.34a.9959.9959 0 00-1.41 0l-1.83 1.83 3.75 3.75 1.83-1.83z"
                          />
                        </svg>
                      </span>
                      <span
                        class="MuiTouchRipple-root-671"
                      />
                    </button>
                  </div>
                  <div
                    class="MuiGrid-root-346 MuiGrid-item-348"
                  >
                    <button
                      class="MuiButtonBase-root-527 MuiIconButton-root-647"
                      style="z-index: 5;"
                      tabindex="0"
                      type="button"
                    >
                      <span
                        class="MuiIconButton-label-655"
                      >
                        <svg
                          aria-hidden="true"
                          class="MuiSvgIcon-root-530"
                          focusable="false"
                          style="color: red;"
                          viewBox="0 0 24 24"
                        >
                          <path
                            d="M6 19c0 1.1.9 2 2 2h8c1.1 0 2-.9 2-2V7H6v12zM19 4h-3.5l-1-1h-5l-1 1H5v2h14V4z"
                          />
                        </svg>
                      </span>
                      <span
                        class="MuiTouchRipple-root-671"
                      />
                    </button>
                  </div>
                  <div
                    class="MuiGrid-root-346 MuiGrid-item-348"
                  />
                </div>
              </td>
            </tr>
            <tr
              class="MuiTableRow-root-505 makeStyles-row-343 MuiTableRow-hover-507"
              data-testid="spareday#2"
            >
              <th
                class="MuiTableCell-root-510 MuiTableCell-body-512 MuiTableCell-sizeSmall-514"
                role="cell"
                scope="row"
              >
                Sunday, December 31, 2017
              </th>
              <td
                class="MuiTableCell-root-510 MuiTableCell-body-512 MuiTableCell-alignCenter-518 MuiTableCell-sizeSmall-514"
              >
                date2
              </td>
              <td
                class="MuiTableCell-root-510 MuiTableCell-body-512 MuiTableCell-alignCenter-518 MuiTableCell-sizeSmall-514"
              >
                <div
                  class="MuiGrid-root-346 MuiGrid-container-347 MuiGrid-spacing-xs-1-369 MuiGrid-align-items-xs-center-355"
                >
                  <div
                    class="MuiGrid-root-346 MuiGrid-item-348"
                  >
                    <img
                      src="https://cdnjs.cloudflare.com/ajax/libs/flag-icon-css/3.4.3/flags/4x3/fr.svg"
                      style="display: inline-block; width: 1.5em; height: 1.5em; vertical-align: middle;"
                    />
                  </div>
                  <div
                    class="MuiGrid-root-346 MuiGrid-item-348"
                  >
                    <p
                      class="MuiTypography-root-540 MuiTypography-body1-542"
                    >
                      France
                    </p>
                  </div>
                </div>
              </td>
              <td
                class="MuiTableCell-root-510 MuiTableCell-body-512 MuiTableCell-alignCenter-518 MuiTableCell-sizeSmall-514"
              >
                <div
                  class="MuiButtonBase-root-527 MuiChip-root-617 MuiChip-clickable-622"
                  role="button"
                  style="z-index: 3;"
                  tabindex="0"
                >
                  <span
                    class="MuiChip-label-639"
                  >
                    team1
                  </span>
                  <span
                    class="MuiTouchRipple-root-671"
                  />
                </div>
              </td>
              <td
                class="MuiTableCell-root-510 MuiTableCell-body-512 MuiTableCell-alignCenter-518 MuiTableCell-sizeSmall-514"
              >
                <div
                  class="MuiGrid-root-346 MuiGrid-container-347 MuiGrid-wrap-xs-nowrap-353 MuiGrid-align-items-xs-center-355"
                >
                  <div
                    class="MuiGrid-root-346 MuiGrid-item-348"
                  >
                    <button
                      class="MuiButtonBase-root-527 MuiIconButton-root-647 MuiIconButton-colorPrimary-651"
                      tabindex="0"
                      type="button"
                    >
                      <span
                        class="MuiIconButton-label-655"
                      >
                        <svg
                          aria-hidden="true"
                          class="MuiSvgIcon-root-530"
                          focusable="false"
                          viewBox="0 0 24 24"
                        >
                          <path
                            d="M3 17.25V21h3.75L17.81 9.94l-3.75-3.75L3 17.25zM20.71 7.04c.39-.39.39-1.02 0-1.41l-2.34-2.34a.9959.9959 0 00-1.41 0l-1.83 1.83 3.75 3.75 1.83-1.83z"
                          />
                        </svg>
                      </span>
                      <span
                        class="MuiTouchRipple-root-671"
                      />
                    </button>
                  </div>
                  <div
                    class="MuiGrid-root-346 MuiGrid-item-348"
                  >
                    <button
                      class="MuiButtonBase-root-527 MuiIconButton-root-647"
                      style="z-index: 5;"
                      tabindex="0"
                      type="button"
                    >
                      <span
                        class="MuiIconButton-label-655"
                      >
                        <svg
                          aria-hidden="true"
                          class="MuiSvgIcon-root-530"
                          focusable="false"
                          style="color: red;"
                          viewBox="0 0 24 24"
                        >
                          <path
                            d="M6 19c0 1.1.9 2 2 2h8c1.1 0 2-.9 2-2V7H6v12zM19 4h-3.5l-1-1h-5l-1 1H5v2h14V4z"
                          />
                        </svg>
                      </span>
                      <span
                        class="MuiTouchRipple-root-671"
                      />
                    </button>
                  </div>
                  <div
                    class="MuiGrid-root-346 MuiGrid-item-348"
                  />
                </div>
              </td>
            </tr>
          </tbody>
        </table>
      </div>
    </div>
  </div>
</div>
`;
