// Jest Snapshot v1, https://goo.gl/fbAQLP

exports[`components | teams | List should render teams 1`] = `
<div>
  <div
    class="MuiGrid-root-334 MuiGrid-container-335 MuiGrid-spacing-xs-2-358 MuiGrid-direction-xs-column-338"
    data-testid="team.list"
  >
    <div
      class="MuiGrid-root-334 MuiGrid-container-335 MuiGrid-item-336 MuiGrid-justify-xs-space-between-354"
    >
      <div
        class="MuiGrid-root-334 MuiGrid-item-336"
      >
        <div
          class="MuiPaper-root-447 makeStyles-root-437 makeStyles-hover-440 MuiPaper-elevation1-451 MuiPaper-rounded-448"
        >
          <div
            class="MuiGrid-root-334 MuiGrid-container-335 MuiGrid-align-items-xs-center-343"
          >
            <div
              class="MuiBox-root-475 MuiBox-root-476 makeStyles-iconBox-442"
            >
              <svg
                aria-hidden="true"
                class="MuiSvgIcon-root-477 makeStyles-searchIcon-443"
                focusable="false"
                viewBox="0 0 24 24"
              >
                <path
                  d="M15.5 14h-.79l-.28-.27C15.41 12.59 16 11.11 16 9.5 16 5.91 13.09 3 9.5 3S3 5.91 3 9.5 5.91 16 9.5 16c1.61 0 3.09-.59 4.23-1.57l.27.28v.79l5 4.99L20.49 19l-4.99-5zm-6 0C7.01 14 5 11.99 5 9.5S7.01 5 9.5 5 14 7.01 14 9.5 11.99 14 9.5 14z"
                />
              </svg>
            </div>
            <div
              class="MuiInputBase-root-486 makeStyles-input-441"
            >
              <input
                class="MuiInputBase-input-497"
                placeholder="Search..."
                type="text"
                value=""
              />
            </div>
            
          </div>
        </div>
      </div>
    </div>
    <div
      class="MuiGrid-root-334 makeStyles-root-326 MuiGrid-item-336"
    >
      <div
        class="MuiPaper-root-447 MuiTableContainer-root-504 MuiPaper-elevation1-451 MuiPaper-rounded-448"
      >
        <table
          aria-label="a dense table"
          class="MuiTable-root-505"
        >
          <thead
            class="MuiTableHead-root-507"
          >
            <tr
              class="MuiTableRow-root-508 MuiTableRow-head-511"
            >
              <th
                class="MuiTableCell-root-513 MuiTableCell-head-514 MuiTableCell-alignCenter-521 MuiTableCell-sizeSmall-517"
                scope="col"
              >
                <span
                  aria-disabled="false"
                  class="MuiButtonBase-root-530 MuiTableSortLabel-root-525 makeStyles-columnSort-330 MuiTableSortLabel-active-526"
                  role="button"
                  tabindex="0"
                >
                  Name
                  <svg
                    aria-hidden="true"
                    class="MuiSvgIcon-root-477 MuiTableSortLabel-icon-527 MuiTableSortLabel-iconDirectionAsc-529"
                    focusable="false"
                    viewBox="0 0 24 24"
                  >
                    <path
                      d="M20 12l-1.41-1.41L13 16.17V4h-2v12.17l-5.58-5.59L4 12l8 8 8-8z"
                    />
                  </svg>
                </span>
              </th>
              <th
                class="MuiTableCell-root-513 MuiTableCell-head-514 MuiTableCell-alignCenter-521 MuiTableCell-sizeSmall-517"
                scope="col"
              >
                <span
                  aria-disabled="false"
                  class="MuiButtonBase-root-530 MuiTableSortLabel-root-525 makeStyles-columnSort-330"
                  role="button"
                  tabindex="0"
                >
                  Description
                  <svg
                    aria-hidden="true"
                    class="MuiSvgIcon-root-477 MuiTableSortLabel-icon-527 MuiTableSortLabel-iconDirectionAsc-529"
                    focusable="false"
                    viewBox="0 0 24 24"
                  >
                    <path
                      d="M20 12l-1.41-1.41L13 16.17V4h-2v12.17l-5.58-5.59L4 12l8 8 8-8z"
                    />
                  </svg>
                </span>
              </th>
              <th
                class="MuiTableCell-root-513 MuiTableCell-head-514 MuiTableCell-alignCenter-521 MuiTableCell-sizeSmall-517"
                scope="col"
              >
                <span
                  aria-disabled="false"
                  class="MuiButtonBase-root-530 MuiTableSortLabel-root-525 makeStyles-columnSort-330"
                  role="button"
                  tabindex="0"
                >
                  Type
                  <svg
                    aria-hidden="true"
                    class="MuiSvgIcon-root-477 MuiTableSortLabel-icon-527 MuiTableSortLabel-iconDirectionAsc-529"
                    focusable="false"
                    viewBox="0 0 24 24"
                  >
                    <path
                      d="M20 12l-1.41-1.41L13 16.17V4h-2v12.17l-5.58-5.59L4 12l8 8 8-8z"
                    />
                  </svg>
                </span>
              </th>
              <th
                class="MuiTableCell-root-513 MuiTableCell-head-514 MuiTableCell-alignCenter-521 MuiTableCell-sizeSmall-517"
                scope="col"
              >
                <span
                  aria-disabled="false"
                  class="MuiButtonBase-root-530 MuiTableSortLabel-root-525 makeStyles-columnSort-330"
                  role="button"
                  tabindex="0"
                >
                  Country
                  <svg
                    aria-hidden="true"
                    class="MuiSvgIcon-root-477 MuiTableSortLabel-icon-527 MuiTableSortLabel-iconDirectionAsc-529"
                    focusable="false"
                    viewBox="0 0 24 24"
                  >
                    <path
                      d="M20 12l-1.41-1.41L13 16.17V4h-2v12.17l-5.58-5.59L4 12l8 8 8-8z"
                    />
                  </svg>
                </span>
              </th>
              <th
                class="MuiTableCell-root-513 MuiTableCell-head-514 makeStyles-bold-329 MuiTableCell-alignCenter-521 MuiTableCell-sizeSmall-517"
                scope="col"
              >
                Members
              </th>
              <th
                class="MuiTableCell-root-513 MuiTableCell-head-514 MuiTableCell-sizeSmall-517"
                scope="col"
              />
            </tr>
          </thead>
          <tbody
            class="MuiTableBody-root-533"
          >
            <tr
              class="MuiTableRow-root-508 makeStyles-row-327 MuiTableRow-hover-510"
              data-testid="team#1"
            >
              <th
                class="MuiTableCell-root-513 MuiTableCell-body-515 MuiTableCell-alignCenter-521 MuiTableCell-sizeSmall-517"
                role="cell"
                scope="row"
              >
                team1
              </th>
              <td
                class="MuiTableCell-root-513 MuiTableCell-body-515 MuiTableCell-alignLeft-520 MuiTableCell-sizeSmall-517"
              >
                <p
                  class="MuiTypography-root-534 makeStyles-descriptionStyle-333 MuiTypography-body1-536"
                >
                  description1
                </p>
              </td>
              <td
                class="MuiTableCell-root-513 MuiTableCell-body-515 MuiTableCell-alignCenter-521 MuiTableCell-sizeSmall-517"
              >
                company
              </td>
              <td
                class="MuiTableCell-root-513 MuiTableCell-body-515 MuiTableCell-alignCenter-521 MuiTableCell-sizeSmall-517"
              >
                <div
                  class="MuiGrid-root-334 MuiGrid-container-335 MuiGrid-spacing-xs-1-357 MuiGrid-align-items-xs-center-343"
                >
                  <div
                    class="MuiGrid-root-334 MuiGrid-item-336"
                  >
                    <img
                      src="https://cdnjs.cloudflare.com/ajax/libs/flag-icon-css/3.4.3/flags/4x3/tu.svg"
                      style="display: inline-block; width: 1.5em; height: 1.5em; vertical-align: middle;"
                    />
                  </div>
                  <div
                    class="MuiGrid-root-334 MuiGrid-item-336"
                  >
                    <p
                      class="MuiTypography-root-534 MuiTypography-body1-536"
                    />
                  </div>
                </div>
              </td>
              <td
                class="MuiTableCell-root-513 MuiTableCell-body-515 MuiTableCell-alignCenter-521 MuiTableCell-sizeSmall-517"
              >
                <div
                  class="MuiAvatarGroup-root-602"
                >
                  <button
                    class="MuiButtonBase-root-530 MuiIconButton-root-593 makeStyles-userAvatar-324 MuiAvatarGroup-avatar-603"
                    tabindex="0"
                    type="button"
                  >
                    <span
                      class="MuiIconButton-label-601"
                    >
                      <div
                        class="MuiAvatar-root-615 MuiAvatar-circle-617 makeStyles-userAvatar-324 MuiAvatarGroup-avatar-603 MuiAvatar-colorDefault-616"
                        style="height: 28px; width: 28px; background-color: rgb(166, 167, 149); font-size: 12px; margin: 2px; z-index: 3;"
                        title="CC BBB"
                      >
                        C
                      </div>
                    </span>
                    <span
                      class="MuiTouchRipple-root-637"
                    />
                  </button>
                </div>
              </td>
              <td
                class="MuiTableCell-root-513 MuiTableCell-body-515 MuiTableCell-alignCenter-521 MuiTableCell-sizeSmall-517"
              >
                <div
                  class="MuiGrid-root-334 MuiGrid-container-335 MuiGrid-wrap-xs-nowrap-341 MuiGrid-align-items-xs-center-343"
                >
                  <div
                    class="MuiGrid-root-334 MuiGrid-item-336"
                  >
                    <button
                      class="MuiButtonBase-root-530 MuiIconButton-root-593 MuiIconButton-disabled-599 MuiButtonBase-disabled-531"
                      disabled=""
                      tabindex="-1"
                      type="button"
                    >
                      <span
                        class="MuiIconButton-label-601"
                      >
                        <svg
                          aria-hidden="true"
                          class="MuiSvgIcon-root-477"
                          focusable="false"
                          viewBox="0 0 24 24"
                        >
                          <path
                            d="M3 17.25V21h3.75L17.81 9.94l-3.75-3.75L3 17.25zM20.71 7.04c.39-.39.39-1.02 0-1.41l-2.34-2.34a.9959.9959 0 00-1.41 0l-1.83 1.83 3.75 3.75 1.83-1.83z"
                          />
                        </svg>
                      </span>
                    </button>
                  </div>
                  <div
                    class="MuiGrid-root-334 MuiGrid-item-336"
                  >
                    <button
                      class="MuiButtonBase-root-530 MuiIconButton-root-593 MuiIconButton-disabled-599 MuiButtonBase-disabled-531"
                      disabled=""
                      tabindex="-1"
                      type="button"
                    >
                      <span
                        class="MuiIconButton-label-601"
                      >
                        <svg
                          aria-hidden="true"
                          class="MuiSvgIcon-root-477"
                          focusable="false"
                          viewBox="0 0 24 24"
                        >
                          <path
                            d="M6 19c0 1.1.9 2 2 2h8c1.1 0 2-.9 2-2V7H6v12zM19 4h-3.5l-1-1h-5l-1 1H5v2h14V4z"
                          />
                        </svg>
                      </span>
                    </button>
                  </div>
                  <div
                    class="MuiGrid-root-334 MuiGrid-item-336"
                  />
                  <div
                    class="MuiGrid-root-334 MuiGrid-item-336"
                  >
                    <button
                      class="MuiButtonBase-root-530 MuiIconButton-root-593"
                      tabindex="0"
                      type="button"
                    >
                      <span
                        class="MuiIconButton-label-601"
                      >
                        <svg
                          aria-hidden="true"
                          class="MuiSvgIcon-root-477"
                          focusable="false"
                          viewBox="0 0 24 24"
                        >
                          <path
                            d="M20 3h-1V1h-2v2H7V1H5v2H4c-1.1 0-2 .9-2 2v16c0 1.1.9 2 2 2h16c1.1 0 2-.9 2-2V5c0-1.1-.9-2-2-2zm0 18H4V8h16v13z"
                          />
                        </svg>
                      </span>
                      <span
                        class="MuiTouchRipple-root-637"
                      />
                    </button>
                  </div>
                </div>
              </td>
            </tr>
            <tr
              class="MuiTableRow-root-508 makeStyles-row-327 MuiTableRow-hover-510"
              data-testid="team#2"
            >
              <th
                class="MuiTableCell-root-513 MuiTableCell-body-515 MuiTableCell-alignCenter-521 MuiTableCell-sizeSmall-517"
                role="cell"
                scope="row"
              >
                team2
              </th>
              <td
                class="MuiTableCell-root-513 MuiTableCell-body-515 MuiTableCell-alignLeft-520 MuiTableCell-sizeSmall-517"
              >
                <p
                  class="MuiTypography-root-534 makeStyles-descriptionStyle-333 MuiTypography-body1-536"
                >
                  description2
                </p>
              </td>
              <td
                class="MuiTableCell-root-513 MuiTableCell-body-515 MuiTableCell-alignCenter-521 MuiTableCell-sizeSmall-517"
              >
                company
              </td>
              <td
                class="MuiTableCell-root-513 MuiTableCell-body-515 MuiTableCell-alignCenter-521 MuiTableCell-sizeSmall-517"
              >
                <div
                  class="MuiGrid-root-334 MuiGrid-container-335 MuiGrid-spacing-xs-1-357 MuiGrid-align-items-xs-center-343"
                >
                  <div
                    class="MuiGrid-root-334 MuiGrid-item-336"
                  >
                    <img
                      src="https://cdnjs.cloudflare.com/ajax/libs/flag-icon-css/3.4.3/flags/4x3/fa.svg"
                      style="display: inline-block; width: 1.5em; height: 1.5em; vertical-align: middle;"
                    />
                  </div>
                  <div
                    class="MuiGrid-root-334 MuiGrid-item-336"
                  >
                    <p
                      class="MuiTypography-root-534 MuiTypography-body1-536"
                    />
                  </div>
                </div>
              </td>
              <td
                class="MuiTableCell-root-513 MuiTableCell-body-515 MuiTableCell-alignCenter-521 MuiTableCell-sizeSmall-517"
              >
                <div
                  class="MuiAvatarGroup-root-602"
                >
                  <button
                    class="MuiButtonBase-root-530 MuiIconButton-root-593 makeStyles-userAvatar-324 MuiAvatarGroup-avatar-603"
                    tabindex="0"
                    type="button"
                  >
                    <span
                      class="MuiIconButton-label-601"
                    >
                      <div
                        class="MuiAvatar-root-615 MuiAvatar-circle-617 makeStyles-userAvatar-324 MuiAvatarGroup-avatar-603 MuiAvatar-colorDefault-616"
                        style="height: 28px; width: 28px; background-color: rgb(166, 167, 149); font-size: 12px; margin: 2px; z-index: 3;"
                        title="CCa BBB"
                      >
                        C
                      </div>
                    </span>
                    <span
                      class="MuiTouchRipple-root-637"
                    />
                  </button>
                </div>
              </td>
              <td
                class="MuiTableCell-root-513 MuiTableCell-body-515 MuiTableCell-alignCenter-521 MuiTableCell-sizeSmall-517"
              >
                <div
                  class="MuiGrid-root-334 MuiGrid-container-335 MuiGrid-wrap-xs-nowrap-341 MuiGrid-align-items-xs-center-343"
                >
                  <div
                    class="MuiGrid-root-334 MuiGrid-item-336"
                  >
                    <button
                      class="MuiButtonBase-root-530 MuiIconButton-root-593 MuiIconButton-disabled-599 MuiButtonBase-disabled-531"
                      disabled=""
                      tabindex="-1"
                      type="button"
                    >
                      <span
                        class="MuiIconButton-label-601"
                      >
                        <svg
                          aria-hidden="true"
                          class="MuiSvgIcon-root-477"
                          focusable="false"
                          viewBox="0 0 24 24"
                        >
                          <path
                            d="M3 17.25V21h3.75L17.81 9.94l-3.75-3.75L3 17.25zM20.71 7.04c.39-.39.39-1.02 0-1.41l-2.34-2.34a.9959.9959 0 00-1.41 0l-1.83 1.83 3.75 3.75 1.83-1.83z"
                          />
                        </svg>
                      </span>
                    </button>
                  </div>
                  <div
                    class="MuiGrid-root-334 MuiGrid-item-336"
                  >
                    <button
                      class="MuiButtonBase-root-530 MuiIconButton-root-593 MuiIconButton-disabled-599 MuiButtonBase-disabled-531"
                      disabled=""
                      tabindex="-1"
                      type="button"
                    >
                      <span
                        class="MuiIconButton-label-601"
                      >
                        <svg
                          aria-hidden="true"
                          class="MuiSvgIcon-root-477"
                          focusable="false"
                          viewBox="0 0 24 24"
                        >
                          <path
                            d="M6 19c0 1.1.9 2 2 2h8c1.1 0 2-.9 2-2V7H6v12zM19 4h-3.5l-1-1h-5l-1 1H5v2h14V4z"
                          />
                        </svg>
                      </span>
                    </button>
                  </div>
                  <div
                    class="MuiGrid-root-334 MuiGrid-item-336"
                  />
                  <div
                    class="MuiGrid-root-334 MuiGrid-item-336"
                  >
                    <button
                      class="MuiButtonBase-root-530 MuiIconButton-root-593"
                      tabindex="0"
                      type="button"
                    >
                      <span
                        class="MuiIconButton-label-601"
                      >
                        <svg
                          aria-hidden="true"
                          class="MuiSvgIcon-root-477"
                          focusable="false"
                          viewBox="0 0 24 24"
                        >
                          <path
                            d="M20 3h-1V1h-2v2H7V1H5v2H4c-1.1 0-2 .9-2 2v16c0 1.1.9 2 2 2h16c1.1 0 2-.9 2-2V5c0-1.1-.9-2-2-2zm0 18H4V8h16v13z"
                          />
                        </svg>
                      </span>
                      <span
                        class="MuiTouchRipple-root-637"
                      />
                    </button>
                  </div>
                </div>
              </td>
            </tr>
          </tbody>
        </table>
        <div
          class="MuiTablePagination-root-564 makeStyles-tablePagination-328"
        >
          <div
            class="MuiToolbar-root-574 MuiToolbar-regular-576 MuiTablePagination-toolbar-565 MuiToolbar-gutters-575"
          >
            <div
              class="MuiTablePagination-spacer-566"
            />
            <p
              class="MuiTypography-root-534 MuiTablePagination-caption-567 MuiTypography-body2-535 MuiTypography-colorInherit-556"
              id="mui-83720"
            >
              Rows per page:
            </p>
            <div
              class="MuiInputBase-root-486 MuiTablePagination-input-571 MuiTablePagination-selectRoot-568"
            >
              <div
                aria-haspopup="listbox"
                aria-labelledby="mui-83720 mui-72303"
                class="MuiSelect-root-578 MuiSelect-select-579 MuiTablePagination-select-569 MuiSelect-selectMenu-582 MuiInputBase-input-497"
                id="mui-72303"
                role="button"
                tabindex="0"
              >
                20
              </div>
              <input
                aria-hidden="true"
                class="MuiSelect-nativeInput-588"
                tabindex="-1"
                value="20"
              />
              <svg
                aria-hidden="true"
                class="MuiSvgIcon-root-477 MuiSelect-icon-584 MuiTablePagination-selectIcon-570"
                focusable="false"
                viewBox="0 0 24 24"
              >
                <path
                  d="M7 10l5 5 5-5z"
                />
              </svg>
            </div>
            <p
              class="MuiTypography-root-534 MuiTablePagination-caption-567 MuiTypography-body2-535 MuiTypography-colorInherit-556"
            >
              1-2 of 2
            </p>
            <div
              class="MuiTablePagination-actions-573"
            >
              <button
                aria-label="Previous page"
                class="MuiButtonBase-root-530 MuiIconButton-root-593 MuiIconButton-colorInherit-596 MuiIconButton-disabled-599 MuiButtonBase-disabled-531"
                disabled=""
                tabindex="-1"
                title="Previous page"
                type="button"
              >
                <span
                  class="MuiIconButton-label-601"
                >
                  <svg
                    aria-hidden="true"
                    class="MuiSvgIcon-root-477"
                    focusable="false"
                    viewBox="0 0 24 24"
                  >
                    <path
                      d="M15.41 16.09l-4.58-4.59 4.58-4.59L14 5.5l-6 6 6 6z"
                    />
                  </svg>
                </span>
              </button>
              <button
                aria-label="Next page"
                class="MuiButtonBase-root-530 MuiIconButton-root-593 MuiIconButton-colorInherit-596 MuiIconButton-disabled-599 MuiButtonBase-disabled-531"
                disabled=""
                tabindex="-1"
                title="Next page"
                type="button"
              >
                <span
                  class="MuiIconButton-label-601"
                >
                  <svg
                    aria-hidden="true"
                    class="MuiSvgIcon-root-477"
                    focusable="false"
                    viewBox="0 0 24 24"
                  >
                    <path
                      d="M8.59 16.34l4.58-4.59-4.58-4.59L10 5.75l6 6-6 6z"
                    />
                  </svg>
                </span>
              </button>
            </div>
          </div>
        </div>
      </div>
    </div>
  </div>
</div>
`;
