// Jest Snapshot v1, https://goo.gl/fbAQLP

exports[`components | CalendarActionMenu | index should render component 1`] = `
<div>
  <div>
    <button
      aria-label="Calendar-Action-Menu"
      class="MuiButtonBase-root-10 MuiIconButton-root-1"
      tabindex="0"
      type="button"
    >
      <span
        class="MuiIconButton-label-9"
      >
        <svg
          aria-hidden="true"
          class="MuiSvgIcon-root-13"
          focusable="false"
          viewBox="0 0 24 24"
        >
          <path
            d="M3 18h18v-2H3v2zm0-5h18v-2H3v2zm0-7v2h18V6H3z"
          />
        </svg>
      </span>
      <span
        class="MuiTouchRipple-root-26"
      />
    </button>
  </div>
</div>
`;
