// Jest Snapshot v1, https://goo.gl/fbAQLP

exports[`components | Login | index should render component 1`] = `
<div>
  <form>
    <div
      class="MuiGrid-root-16 makeStyles-pageContainer-11 MuiGrid-container-17 MuiGrid-align-items-xs-center-25 MuiGrid-justify-xs-center-34"
    >
      <div
        class="MuiGrid-root-16 makeStyles-cardContainer-12 MuiGrid-container-17 MuiGrid-justify-xs-center-34"
      >
        <div
          class="MuiPaper-root-120 MuiCard-root-119 makeStyles-card-13 MuiPaper-elevation1-124 MuiPaper-rounded-121"
        >
          <div
            class="MuiGrid-root-16 makeStyles-container-1 MuiGrid-container-17 MuiGrid-direction-xs-column-20 MuiGrid-align-items-xs-center-25 MuiGrid-justify-xs-center-34"
          >
            <div
              class="MuiGrid-root-16 makeStyles-logoContainer-10 MuiGrid-container-17 MuiGrid-item-18 MuiGrid-direction-xs-column-20 MuiGrid-align-items-xs-center-25"
            >
              <svg
                aria-hidden="true"
                class="MuiSvgIcon-root-148 makeStyles-loginIcon-9 MuiSvgIcon-colorSecondary-150"
                focusable="false"
                viewBox="0 0 24 24"
              >
                <path
                  d="M18 8h-1V6c0-2.76-2.24-5-5-5S7 3.24 7 6v2H6c-1.1 0-2 .9-2 2v10c0 1.1.9 2 2 2h12c1.1 0 2-.9 2-2V10c0-1.1-.9-2-2-2zm-6 9c-1.1 0-2-.9-2-2s.9-2 2-2 2 .9 2 2-.9 2-2 2zm3.1-9H8.9V6c0-1.71 1.39-3.1 3.1-3.1 1.71 0 3.1 1.39 3.1 3.1v2z"
                />
              </svg>
              <div
                class="MuiCardHeader-root-157"
              >
                <div
                  class="MuiCardHeader-content-160"
                >
                  <span
                    class="MuiTypography-root-163 MuiCardHeader-title-161 MuiTypography-h5-172 MuiTypography-displayBlock-192"
                  >
                    Sign In
                  </span>
                </div>
              </div>
            </div>
            <div
              class="MuiGrid-root-16 makeStyles-cardContentContainer-2 MuiGrid-container-17 MuiGrid-item-18"
            >
              <div
                class="MuiCardContent-root-193 makeStyles-cardContent-14"
              >
                <div
                  class="MuiGrid-root-16 makeStyles-content-15 MuiGrid-container-17 MuiGrid-direction-xs-column-20 MuiGrid-align-items-xs-center-25"
                >
                  <div
                    class="MuiGrid-root-16 MuiGrid-container-17 MuiGrid-spacing-xs-2-40 MuiGrid-item-18 MuiGrid-direction-xs-column-20 MuiGrid-align-items-xs-center-25"
                  >
                    <div
                      class="MuiGrid-root-16 MuiGrid-item-18 MuiGrid-grid-xs-12-62 MuiGrid-grid-md-10-88"
                      style="width: 100%;"
                    >
                      <button
                        class="makeStyles-googleBtn-196"
                        color="primary"
                        disabled=""
                        variant="contained"
                      >
                        <img
                          class="MuiCardMedia-root-197 makeStyles-logoGoogle-195 MuiCardMedia-media-198 MuiCardMedia-img-199"
                          src="https://img.icons8.com/color/48/000000/google-logo.png"
                        />
                        <p
                          class="MuiTypography-root-163 MuiTypography-body1-165"
                        >
                          Sign in with Google
                        </p>
                      </button>
                    </div>
                    <div
                      class="MuiGrid-root-16 MuiGrid-item-18"
                    >
                      <p
                        class="MuiTypography-root-163 MuiTypography-body1-165"
                      >
                        - OR sign in with -
                      </p>
                    </div>
                  </div>
                  <div
                    class="MuiFormControl-root-201 MuiTextField-root-200 makeStyles-textField-8"
                  >
                    <label
                      class="MuiFormLabel-root-217 MuiInputLabel-root-205 MuiInputLabel-formControl-211 MuiInputLabel-animated-214"
                      data-shrink="false"
                    >
                      Email
                    </label>
                    <div
                      class="MuiInputBase-root-239 MuiInput-root-225 MuiInput-underline-230 MuiInputBase-formControl-240 MuiInput-formControl-226 MuiInputBase-adornedEnd-244"
                    >
                      <input
                        aria-invalid="false"
                        class="MuiInputBase-input-250 MuiInput-input-235 MuiInputBase-inputAdornedEnd-255"
                        name="email"
                        type="email"
                        value=""
                      />
                      <svg
                        aria-hidden="true"
                        class="MuiSvgIcon-root-148"
                        focusable="false"
                        viewBox="0 0 24 24"
                      >
                        <path
                          d="M20 5H4c-1.1 0-1.99.9-1.99 2L2 17c0 1.1.9 2 2 2h16c1.1 0 2-.9 2-2V7c0-1.1-.9-2-2-2zm-9 3h2v2h-2V8zm0 3h2v2h-2v-2zM8 8h2v2H8V8zm0 3h2v2H8v-2zm-1 2H5v-2h2v2zm0-3H5V8h2v2zm9 7H8v-2h8v2zm0-4h-2v-2h2v2zm0-3h-2V8h2v2zm3 3h-2v-2h2v2zm0-3h-2V8h2v2z"
                        />
                      </svg>
                    </div>
                  </div>
                  <div
                    class="MuiFormControl-root-201 MuiTextField-root-200 makeStyles-textField-8"
                  >
                    <label
                      class="MuiFormLabel-root-217 MuiInputLabel-root-205 MuiInputLabel-formControl-211 MuiInputLabel-animated-214"
                      data-shrink="false"
                    >
                      Password
                    </label>
                    <div
                      class="MuiInputBase-root-239 MuiInput-root-225 MuiInput-underline-230 MuiInputBase-formControl-240 MuiInput-formControl-226 MuiInputBase-adornedEnd-244"
                    >
                      <input
                        aria-invalid="false"
                        class="MuiInputBase-input-250 MuiInput-input-235 MuiInputBase-inputAdornedEnd-255"
                        name="password"
                        type="password"
                        value=""
                      />
                      <svg
                        aria-hidden="true"
                        class="MuiSvgIcon-root-148"
                        focusable="false"
                        viewBox="0 0 24 24"
                      >
                        <path
                          d="M20 5H4c-1.1 0-1.99.9-1.99 2L2 17c0 1.1.9 2 2 2h16c1.1 0 2-.9 2-2V7c0-1.1-.9-2-2-2zm-9 3h2v2h-2V8zm0 3h2v2h-2v-2zM8 8h2v2H8V8zm0 3h2v2H8v-2zm-1 2H5v-2h2v2zm0-3H5V8h2v2zm9 7H8v-2h8v2zm0-4h-2v-2h2v2zm0-3h-2V8h2v2zm3 3h-2v-2h2v2zm0-3h-2V8h2v2z"
                        />
                      </svg>
                    </div>
                  </div>
                  <button
                    class="MuiButtonBase-root-286 MuiButton-root-257 MuiButton-contained-265 makeStyles-button-3 MuiButton-containedPrimary-266 MuiButton-disabled-270 MuiButtonBase-disabled-287"
                    disabled=""
                    tabindex="-1"
                    type="submit"
                  >
                    <span
                      class="MuiButton-label-258"
                    >
                      <p
                        class="MuiTypography-root-163 MuiTypography-body1-165"
                      >
                        Sign In
                      </p>
                    </span>
                  </button>
                  <a
                    aria-disabled="false"
                    class="MuiButtonBase-root-286 MuiButton-root-257 MuiButton-text-259 MuiButton-textPrimary-260"
                    href="/requestNewPassword"
                    role="button"
                    tabindex="0"
                  >
                    <span
                      class="MuiButton-label-258"
                    >
                      <p
                        class="MuiTypography-root-163 makeStyles-text-6 MuiTypography-body1-165"
                      >
                        Forgot your password?
                      </p>
                    </span>
                    <span
                      class="MuiTouchRipple-root-289"
                    />
                  </a>
                  <a
                    aria-disabled="false"
                    class="MuiButtonBase-root-286 MuiButton-root-257 MuiButton-text-259 MuiButton-textPrimary-260"
                    href="/register"
                    role="button"
                    tabindex="0"
                  >
                    <span
                      class="MuiButton-label-258"
                    >
                      <p
                        class="MuiTypography-root-163 makeStyles-text-6 MuiTypography-body1-165"
                      >
                        If you do not have an account yet, please signUp
                      </p>
                    </span>
                    <span
                      class="MuiTouchRipple-root-289"
                    />
                  </a>
                </div>
              </div>
            </div>
          </div>
        </div>
      </div>
    </div>
  </form>
</div>
`;
