// Jest Snapshot v1, https://goo.gl/fbAQLP

exports[`components | Buttons | goBack should render component 1`] = `
<div>
  <button
    class="MuiButtonBase-root-30 MuiButton-root-1 MuiButton-contained-9 MuiButton-containedSecondary-11 MuiButton-fullWidth-24"
    tabindex="0"
    type="button"
  >
    <span
      class="MuiButton-label-2"
    >
      <span
        class="MuiButton-startIcon-25 MuiButton-iconSizeMedium-28"
      >
        <svg
          aria-hidden="true"
          class="MuiSvgIcon-root-33"
          focusable="false"
          viewBox="0 0 24 24"
        >
          <path
            d="M19 7v4H5.83l3.58-3.59L8 6l-6 6 6 6 1.41-1.41L5.83 13H21V7z"
          />
        </svg>
      </span>
      go back
    </span>
    <span
      class="MuiTouchRipple-root-42"
    />
  </button>
</div>
`;
