// Jest Snapshot v1, https://goo.gl/fbAQLP

exports[`components | Header | index should render component 1`] = `
<div>
  <div
    class="MuiToolbar-root-2 MuiToolbar-regular-4 makeStyles-toolBar-1 MuiToolbar-gutters-3"
  >
    <div
      class="MuiGrid-root-6 MuiGrid-container-7 MuiGrid-wrap-xs-nowrap-13 MuiGrid-align-items-xs-center-15"
    >
      <div
        class="MuiGrid-root-6 MuiGrid-container-7 MuiGrid-item-8 MuiGrid-align-items-xs-center-15 MuiGrid-grid-xs-6-46 MuiGrid-grid-sm-3-57"
      />
      <div
        class="MuiGrid-root-6 MuiGrid-container-7 MuiGrid-item-8 MuiGrid-align-items-xs-center-15 MuiGrid-justify-xs-center-24 MuiGrid-grid-sm-6-60"
      />
      <div
        class="MuiGrid-root-6 MuiGrid-container-7 MuiGrid-item-8 MuiGrid-align-items-xs-center-15 MuiGrid-justify-xs-flex-end-25 MuiGrid-grid-sm-3-57"
      />
    </div>
  </div>
</div>
`;
